Data Literacy - 3 Working with Shapefiles
…
Warning: `as_data_frame()` was deprecated in tibble 2.0.0.
Please use `as_tibble()` instead.
The signature and semantics have changed, see `?as_tibble`.
This warning is displayed once every 8 hours.
Call `lifecycle::last_lifecycle_warnings()` to see where this warning was generated.

# A tibble: 39 × 1
   `Street Name` 
   <chr>         
 1 Allison St    
 2 Birch St      
 3 Boyd St       
 4 Floyd Ave     
 5 Grove Ave     
 6 Hanover Ave   
 7 Kensington Ave
 8 Lombardy Pl   
 9 Madumbie Lane 
10 Monument Ave  
# … with 29 more rows
…
